{
	"db_name": "ZOSC",
	"db_file": "data/zosc.db",
	"version": 2,
	"maps": {
		"users/.+/content.json": {
			"to_json_table": ["cert_user_id"],
			"file_name": "data.json"
		},
		"users/.+/data.json": {
			"to_table": ["videos"]
		}
	},
	"tables": {
		"json": {
			"cols": [
				["json_id", "INTEGER PRIMARY KEY AUTOINCREMENT"],
				["directory", "TEXT"],
				["file_name", "TEXT"],
				["cert_user_id", "TEXT"]
			],
			"indexes": ["CREATE UNIQUE INDEX path ON json(directory, file_name)"],
			"schema_changed": 1
		}
	}
}